udp_gate/udp_gate.vcd
$date
	Thu Dec  3 01:11:04 2020
$end
$version
	Icarus Verilog
$end
$timescale
	1s
$end
$scope module tb_udp $end
$var wire 1 ! f $end
$var reg 1 " a $end
$var reg 1 # b $end
$var reg 1 $ c $end
$scope module comp_1 $end
$var wire 1 " A $end
$var wire 1 # B $end
$var wire 1 $ C $end
$var wire 1 ! F $end
$upscope $end
$upscope $end
$enddefinitions $end
#0
$dumpvars
0$
0#
0"
0!
$end
#1
1!
1$
#2
0!
0$
1#
#3
1!
1$
#4
0$
0#
1"
#5
0!
1$
#6
0$
1#
#7
1!
1$
